{
    "sum": {
        "deadline": "21.09.2023 20:00",
        "mutable_files": ["0-begin/sum.h"],
        "score": 100
    },
    "seconds": {
        "deadline": "28.09.2023 20:00",
        "mutable_files": ["1-types/seconds/seconds.h"],
        "score": 200
    },
    "decomposition": {
        "deadline": "28.09.2023 20:00",
        "mutable_files": ["1-types/decomposition/decomposition.h"],
        "score": 200
    },
    "deadline": {
        "deadline": "28.09.2023 20:00",
        "mutable_files": ["1-types/deadline/deadline.h"],
        "score": 150
    },
    "module": {
        "deadline": "28.09.2023 20:00",
        "mutable_files": ["1-types/module/module.h"],
        "score": 50
    },
    "double": {
        "deadline": "28.09.2023 20:00",
        "mutable_files": ["1-types/double/double.h"],
        "score": 100
    },
    "char-category": {
        "deadline": "28.09.2023 20:00",
        "mutable_files": ["1-types/char-category/char-category.h"],
        "score": 100
    },
    "middle-value": {
        "deadline": "12.10.2023 20:00",
        "mutable_files": ["2-if-else-statement/middle-value/middle-value.h"],
        "score": 50
    },
    "three-five": {
        "deadline": "12.10.2023 20:00",
        "mutable_files": ["2-if-else-statement/three-five/three-five.h"],
        "score": 50
    },
    "axes": {
        "deadline": "12.10.2023 20:00",
        "mutable_files": ["2-if-else-statement/axes/axes.h"],
        "score": 100
    },
    "quadratic": {
        "deadline": "12.10.2023 20:00",
        "mutable_files": ["2-if-else-statement/quadratic/quadric.h"],
        "score": 100
    },
    "next-day": {
        "deadline": "12.10.2023 20:00",
        "mutable_files": ["2-if-else-statement/next-day/next-day.h"],
        "score": 250
    }, 
    "chess": {
        "deadline": "12.10.2023 20:00",
        "mutable_files": ["2-if-else-statement/chess/chess.h"],
        "score": 100
    },
    "circle-square": {
        "deadline": "12.10.2023 20:00",
        "mutable_files": ["2-if-else-statement/circle-square/circle-square.h"],
        "score": 100
    },
    "basic-numbers": {
        "deadline": "05.11.2023 20:00",
        "mutable_files": ["3-cycles/basic-numbers/basic-numbers.h"],
        "score": 200
    },
    "calendar": {
        "deadline": "05.11.2023 20:00",
        "mutable_files": ["3-cycles/calendar/calendar.h"],
        "score": 200
    },
    "new-year": {
        "deadline": "05.11.2023 20:00",
        "mutable_files": ["3-cycles/new-year/new-year.h"],
        "score": 300
    },
    "order": {
        "deadline": "05.11.2023 20:00",
        "mutable_files": ["3-cycles/order/standard.h",
                          "3-cycles/order/diagonal.h",
                          "3-cycles/order/ladder.h",
                          "3-cycles/order/spiral.h",
                          "3-cycles/order/zigzag.h"],
        "score": 500
    },
    "pascal": {
        "deadline": "05.11.2023 20:00",
        "mutable_files": ["3-cycles/pascal/pascal.h"],
        "score": 100
    },
    "pow": {
        "deadline": "05.11.2023 20:00",
        "mutable_files": ["3-cycles/pow/pow.h"],
        "score": 150
    },
    "prime": {
        "deadline": "05.11.2023 20:00",
        "mutable_files": ["3-cycles/prime/prime.h"],
        "score": 150
    },
    "sequence": {
        "deadline": "05.11.2023 20:00",
        "mutable_files": ["3-cycles/sequence/sequnece.h"],
        "score": 150
    }
}
