0, 0
0, 1
1, 0
2, 0
1, 1
0, 2
0, 3
1, 2
2, 1
3, 0
4, 0
3, 1
2, 2
1, 3
0, 4
0, 5
1, 4
2, 3
3, 2
4, 1
5, 0
6, 0
5, 1
4, 2
3, 3
2, 4
1, 5
0, 6
0, 7
1, 6
2, 5
3, 4
4, 3
5, 2
6, 1
7, 0
8, 0
7, 1
6, 2
5, 3
4, 4
3, 5
2, 6
1, 7
0, 8
0, 9
1, 8
2, 7
3, 6
4, 5
5, 4
6, 3
7, 2
8, 1
9, 0
10, 0
9, 1
8, 2
7, 3
6, 4
5, 5
4, 6
3, 7
2, 8
1, 9
0, 10
1, 10
2, 9
3, 8
4, 7
5, 6
6, 5
7, 4
8, 3
9, 2
10, 1
10, 2
9, 3
8, 4
7, 5
6, 6
5, 7
4, 8
3, 9
2, 10
3, 10
4, 9
5, 8
6, 7
7, 6
8, 5
9, 4
10, 3
10, 4
9, 5
8, 6
7, 7
6, 8
5, 9
4, 10
5, 10
6, 9
7, 8
8, 7
9, 6
10, 5
10, 6
9, 7
8, 8
7, 9
6, 10
7, 10
8, 9
9, 8
10, 7
10, 8
9, 9
8, 10
9, 10
10, 9
10, 10
